%!PS-Adobe-3.0 EPSF-3.0
%%Creator: graphviz version 2.28.0 (20120509.1137)
%%Title: topology
%%Pages: 1
%%BoundingBox: 36 36 1787 1161
%%EndComments
save
%%BeginProlog
/DotDict 200 dict def
DotDict begin

/setupLatin1 {
mark
/EncodingVector 256 array def
 EncodingVector 0

ISOLatin1Encoding 0 255 getinterval putinterval
EncodingVector 45 /hyphen put

% Set up ISO Latin 1 character encoding
/starnetISO {
        dup dup findfont dup length dict begin
        { 1 index /FID ne { def }{ pop pop } ifelse
        } forall
        /Encoding EncodingVector def
        currentdict end definefont
} def
/Times-Roman starnetISO def
/Times-Italic starnetISO def
/Times-Bold starnetISO def
/Times-BoldItalic starnetISO def
/Helvetica starnetISO def
/Helvetica-Oblique starnetISO def
/Helvetica-Bold starnetISO def
/Helvetica-BoldOblique starnetISO def
/Courier starnetISO def
/Courier-Oblique starnetISO def
/Courier-Bold starnetISO def
/Courier-BoldOblique starnetISO def
cleartomark
} bind def

%%BeginResource: procset graphviz 0 0
/coord-font-family /Times-Roman def
/default-font-family /Times-Roman def
/coordfont coord-font-family findfont 8 scalefont def

/InvScaleFactor 1.0 def
/set_scale {
       dup 1 exch div /InvScaleFactor exch def
       scale
} bind def

% styles
/solid { [] 0 setdash } bind def
/dashed { [9 InvScaleFactor mul dup ] 0 setdash } bind def
/dotted { [1 InvScaleFactor mul 6 InvScaleFactor mul] 0 setdash } bind def
/invis {/fill {newpath} def /stroke {newpath} def /show {pop newpath} def} bind def
/bold { 2 setlinewidth } bind def
/filled { } bind def
/unfilled { } bind def
/rounded { } bind def
/diagonals { } bind def

% hooks for setting color 
/nodecolor { sethsbcolor } bind def
/edgecolor { sethsbcolor } bind def
/graphcolor { sethsbcolor } bind def
/nopcolor {pop pop pop} bind def

/beginpage {	% i j npages
	/npages exch def
	/j exch def
	/i exch def
	/str 10 string def
	npages 1 gt {
		gsave
			coordfont setfont
			0 0 moveto
			(\() show i str cvs show (,) show j str cvs show (\)) show
		grestore
	} if
} bind def

/set_font {
	findfont exch
	scalefont setfont
} def

% draw text fitted to its expected width
/alignedtext {			% width text
	/text exch def
	/width exch def
	gsave
		width 0 gt {
			[] 0 setdash
			text stringwidth pop width exch sub text length div 0 text ashow
		} if
	grestore
} def

/boxprim {				% xcorner ycorner xsize ysize
		4 2 roll
		moveto
		2 copy
		exch 0 rlineto
		0 exch rlineto
		pop neg 0 rlineto
		closepath
} bind def

/ellipse_path {
	/ry exch def
	/rx exch def
	/y exch def
	/x exch def
	matrix currentmatrix
	newpath
	x y translate
	rx ry scale
	0 0 1 0 360 arc
	setmatrix
} bind def

/endpage { showpage } bind def
/showpage { } def

/layercolorseq
	[	% layer color sequence - darkest to lightest
		[0 0 0]
		[.2 .8 .8]
		[.4 .8 .8]
		[.6 .8 .8]
		[.8 .8 .8]
	]
def

/layerlen layercolorseq length def

/setlayer {/maxlayer exch def /curlayer exch def
	layercolorseq curlayer 1 sub layerlen mod get
	aload pop sethsbcolor
	/nodecolor {nopcolor} def
	/edgecolor {nopcolor} def
	/graphcolor {nopcolor} def
} bind def

/onlayer { curlayer ne {invis} if } def

/onlayers {
	/myupper exch def
	/mylower exch def
	curlayer mylower lt
	curlayer myupper gt
	or
	{invis} if
} def

/curlayer 0 def

%%EndResource
%%EndProlog
%%BeginSetup
14 default-font-family set_font
1 setmiterlimit
% /arrowlength 10 def
% /arrowwidth 5 def

% make sure pdfmark is harmless for PS-interpreters other than Distiller
/pdfmark where {pop} {userdict /pdfmark /cleartomark load put} ifelse
% make '<<' and '>>' safe on PS Level 1 devices
/languagelevel where {pop languagelevel}{1} ifelse
2 lt {
    userdict (<<) cvn ([) cvn load put
    userdict (>>) cvn ([) cvn load put
} if

%%EndSetup
setupLatin1
%%Page: 1 1
%%PageBoundingBox: 36 36 1787 1161
%%PageOrientation: Portrait
0 0 1 beginpage
gsave
36 36 1751 1125 boxprim clip newpath
1 1 set_scale 0 rotate 40 41 translate
% jack1
gsave
1 setlinewidth
0 0 0 nodecolor
newpath 704.14 720.5 moveto
704.14 756.5 lineto
855.14 756.5 lineto
855.14 720.5 lineto
closepath stroke
0 0 0 nodecolor
5 /Times-Roman set_font
774.14 746.5 moveto 11 (jack1) alignedtext
1 setlinewidth
0 0 0 nodecolor
newpath 704.14 738.5 moveto
855.14 738.5 lineto
stroke
0 0 0 nodecolor
5 /Times-Roman set_font
712.14 728.5 moveto 16 (10.0.0.8) alignedtext
1 setlinewidth
0 0 0 nodecolor
newpath 736.14 720.5 moveto
736.14 738.5 lineto
stroke
0 0 0 nodecolor
5 /Times-Roman set_font
744.14 728.5 moveto 16 (10.0.1.8) alignedtext
1 setlinewidth
0 0 0 nodecolor
newpath 768.14 720.5 moveto
768.14 738.5 lineto
stroke
0 0 0 nodecolor
5 /Times-Roman set_font
776.14 728.5 moveto 16 (10.0.2.8) alignedtext
1 setlinewidth
0 0 0 nodecolor
newpath 800.14 720.5 moveto
800.14 738.5 lineto
stroke
0 0 0 nodecolor
5 /Times-Roman set_font
808.14 728.5 moveto 21 (10.0.100.8) alignedtext
1 setlinewidth
0 0 0 nodecolor
newpath 837.14 720.5 moveto
837.14 738.5 lineto
stroke
0 0 0 nodecolor
5 /Times-Roman set_font
845.14 728.5 moveto 2 ( ) alignedtext
grestore
% inet-[10.0.0.0/24]
gsave
0.56078 0.3098 1 nodecolor
newpath 1487.39 738.5 moveto
1445.28 756.5 lineto
1361.07 756.5 lineto
1318.97 738.5 lineto
1361.07 720.5 lineto
1445.28 720.5 lineto
closepath fill
1 setlinewidth
filled
0.56078 0.3098 1 nodecolor
newpath 1487.39 738.5 moveto
1445.28 756.5 lineto
1361.07 756.5 lineto
1318.97 738.5 lineto
1361.07 720.5 lineto
1445.28 720.5 lineto
closepath stroke
0 0 0 nodecolor
14 /Times-Roman set_font
1354.68 734.8 moveto 97 (inet-[10.0.0.0/24]) alignedtext
grestore
% inet-[10.0.0.0/24]--jack1
gsave
1 setlinewidth
0 0 0 edgecolor
newpath 1323.43 736.4 moveto
1143.12 731.65 719.64 720.5 719.64 720.5 curveto
stroke
grestore
% inet
gsave
0.56078 0.3098 1 nodecolor
newpath 1742.1 918.5 moveto
1728.53 936.5 lineto
1701.37 936.5 lineto
1687.79 918.5 lineto
1701.37 900.5 lineto
1728.53 900.5 lineto
closepath fill
1 setlinewidth
filled
0.56078 0.3098 1 nodecolor
newpath 1742.1 918.5 moveto
1728.53 936.5 lineto
1701.37 936.5 lineto
1687.79 918.5 lineto
1701.37 900.5 lineto
1728.53 900.5 lineto
closepath stroke
0 0 0 nodecolor
14 /Times-Roman set_font
1704.45 914.8 moveto 21 (inet) alignedtext
grestore
% inet-[10.0.0.0/24]--inet
gsave
1 setlinewidth
0 0 0 edgecolor
newpath 1434.5 756.58 moveto
1498.74 793.67 1643.73 877.38 1695.84 907.47 curveto
stroke
0 0 0 edgecolor
5 /Times-Roman set_font
1436.42 760.33 moveto 36 (blocked input: tcp) alignedtext
0 0 0 edgecolor
5 /Times-Roman set_font
1435.92 754.33 moveto 37 (blocked input: udp) alignedtext
grestore
% joe0
gsave
1 setlinewidth
0 0 0 nodecolor
newpath 423.87 180.5 moveto
423.87 216.5 lineto
511.87 216.5 lineto
511.87 180.5 lineto
closepath stroke
0 0 0 nodecolor
5 /Times-Roman set_font
463.37 206.5 moveto 9 (joe0) alignedtext
1 setlinewidth
0 0 0 nodecolor
newpath 423.87 198.5 moveto
511.87 198.5 lineto
stroke
0 0 0 nodecolor
5 /Times-Roman set_font
431.87 188.5 moveto 19 (10.0.0.13) alignedtext
1 setlinewidth
0 0 0 nodecolor
newpath 458.87 180.5 moveto
458.87 198.5 lineto
stroke
0 0 0 nodecolor
5 /Times-Roman set_font
466.87 188.5 moveto 19 (10.0.1.13) alignedtext
1 setlinewidth
0 0 0 nodecolor
newpath 493.87 180.5 moveto
493.87 198.5 lineto
stroke
0 0 0 nodecolor
5 /Times-Roman set_font
501.87 188.5 moveto 2 ( ) alignedtext
grestore
% inet-[10.0.0.0/24]--joe0
gsave
1 setlinewidth
0 0 0 edgecolor
newpath 1371.98 720.41 moveto
1206.7 624.57 440.87 180.5 440.87 180.5 curveto
stroke
grestore
% joe1
gsave
1 setlinewidth
0 0 0 nodecolor
newpath 735.64 .5 moveto
735.64 36.5 lineto
823.64 36.5 lineto
823.64 .5 lineto
closepath stroke
0 0 0 nodecolor
5 /Times-Roman set_font
775.14 26.5 moveto 9 (joe1) alignedtext
1 setlinewidth
0 0 0 nodecolor
newpath 735.64 18.5 moveto
823.64 18.5 lineto
stroke
0 0 0 nodecolor
5 /Times-Roman set_font
743.64 8.5 moveto 19 (10.0.0.14) alignedtext
1 setlinewidth
0 0 0 nodecolor
newpath 770.64 .5 moveto
770.64 18.5 lineto
stroke
0 0 0 nodecolor
5 /Times-Roman set_font
778.64 8.5 moveto 19 (10.0.1.14) alignedtext
1 setlinewidth
0 0 0 nodecolor
newpath 805.64 .5 moveto
805.64 18.5 lineto
stroke
0 0 0 nodecolor
5 /Times-Roman set_font
813.64 8.5 moveto 2 ( ) alignedtext
grestore
% inet-[10.0.0.0/24]--joe1
gsave
1 setlinewidth
0 0 0 edgecolor
newpath 1387.1 720.26 moveto
1286.92 606.61 752.64 .5 752.64 .5 curveto
stroke
grestore
% jack0
gsave
1 setlinewidth
0 0 0 nodecolor
newpath 997.41 180.5 moveto
997.41 216.5 lineto
1185.41 216.5 lineto
1185.41 180.5 lineto
closepath stroke
0 0 0 nodecolor
5 /Times-Roman set_font
1085.91 206.5 moveto 11 (jack0) alignedtext
1 setlinewidth
0 0 0 nodecolor
newpath 997.41 198.5 moveto
1185.41 198.5 lineto
stroke
0 0 0 nodecolor
5 /Times-Roman set_font
1005.41 188.5 moveto 16 (10.0.0.7) alignedtext
1 setlinewidth
0 0 0 nodecolor
newpath 1029.41 180.5 moveto
1029.41 198.5 lineto
stroke
0 0 0 nodecolor
5 /Times-Roman set_font
1037.41 188.5 moveto 16 (10.0.1.7) alignedtext
1 setlinewidth
0 0 0 nodecolor
newpath 1061.41 180.5 moveto
1061.41 198.5 lineto
stroke
0 0 0 nodecolor
5 /Times-Roman set_font
1069.41 188.5 moveto 16 (10.0.3.7) alignedtext
1 setlinewidth
0 0 0 nodecolor
newpath 1093.41 180.5 moveto
1093.41 198.5 lineto
stroke
0 0 0 nodecolor
5 /Times-Roman set_font
1101.41 188.5 moveto 21 (10.0.200.7) alignedtext
1 setlinewidth
0 0 0 nodecolor
newpath 1130.41 180.5 moveto
1130.41 198.5 lineto
stroke
0 0 0 nodecolor
5 /Times-Roman set_font
1138.41 188.5 moveto 21 (10.0.100.7) alignedtext
1 setlinewidth
0 0 0 nodecolor
newpath 1167.41 180.5 moveto
1167.41 198.5 lineto
stroke
0 0 0 nodecolor
5 /Times-Roman set_font
1175.41 188.5 moveto 2 ( ) alignedtext
grestore
% inet-[10.0.0.0/24]--jack0
gsave
1 setlinewidth
0 0 0 edgecolor
newpath 1390.43 720.25 moveto
1323.26 624.08 1013.41 180.5 1013.41 180.5 curveto
stroke
grestore
% inet-[10.0.1.0/24]
gsave
0.56078 0.3098 1 nodecolor
newpath 863.85 378.5 moveto
821.74 396.5 lineto
737.54 396.5 lineto
695.43 378.5 lineto
737.54 360.5 lineto
821.74 360.5 lineto
closepath fill
1 setlinewidth
filled
0.56078 0.3098 1 nodecolor
newpath 863.85 378.5 moveto
821.74 396.5 lineto
737.54 396.5 lineto
695.43 378.5 lineto
737.54 360.5 lineto
821.74 360.5 lineto
closepath stroke
0 0 0 nodecolor
14 /Times-Roman set_font
731.14 374.8 moveto 97 (inet-[10.0.1.0/24]) alignedtext
grestore
% inet-[10.0.1.0/24]--jack1
gsave
1 setlinewidth
0 0 0 edgecolor
newpath 778.13 396.89 moveto
772.32 467.92 751.64 720.5 751.64 720.5 curveto
stroke
grestore
% inet-[10.0.1.0/24]--joe0
gsave
1 setlinewidth
0 0 0 edgecolor
newpath 751.97 360.4 moveto
677.23 311.53 476.87 180.5 476.87 180.5 curveto
stroke
grestore
% inet-[10.0.1.0/24]--joe1
gsave
1 setlinewidth
0 0 0 edgecolor
newpath 780.07 360.27 moveto
781.87 284.76 788.64 .5 788.64 .5 curveto
stroke
grestore
% inet-[10.0.1.0/24]--jack0
gsave
1 setlinewidth
0 0 0 edgecolor
newpath 804.17 360.23 moveto
869.96 311.21 1045.41 180.5 1045.41 180.5 curveto
stroke
grestore
% inet-[10.0.0.0/8]
gsave
0.56078 0.3098 1 nodecolor
newpath 858.97 1098.5 moveto
819.3 1116.5 lineto
739.98 1116.5 lineto
700.31 1098.5 lineto
739.98 1080.5 lineto
819.3 1080.5 lineto
closepath fill
1 setlinewidth
filled
0.56078 0.3098 1 nodecolor
newpath 858.97 1098.5 moveto
819.3 1116.5 lineto
739.98 1116.5 lineto
700.31 1098.5 lineto
739.98 1080.5 lineto
819.3 1080.5 lineto
closepath stroke
0 0 0 nodecolor
14 /Times-Roman set_font
734.64 1094.8 moveto 90 (inet-[10.0.0.0/8]) alignedtext
grestore
% inet-[10.0.0.0/8]--jack1
gsave
1 setlinewidth
0 0 0 edgecolor
newpath 781.52 1080.27 moveto
789.31 1004.76 818.64 720.5 818.64 720.5 curveto
stroke
grestore
% inet-[10.0.0.0/8]--jack0
gsave
1 setlinewidth
0 0 0 edgecolor
newpath 787.03 1080.16 moveto
839.14 950.78 1149.41 180.5 1149.41 180.5 curveto
stroke
grestore
% Infiniband-[FE80:0000:0000:0001]
gsave
0.56078 0.3098 1 nodecolor
newpath 312.25 738.5 moveto
234.18 756.5 lineto
78.03 756.5 lineto
-.05 738.5 lineto
78.03 720.5 lineto
234.18 720.5 lineto
closepath fill
1 setlinewidth
filled
0.56078 0.3098 1 nodecolor
newpath 312.25 738.5 moveto
234.18 756.5 lineto
78.03 756.5 lineto
-.05 738.5 lineto
78.03 720.5 lineto
234.18 720.5 lineto
closepath stroke
0 0 0 nodecolor
14 /Times-Roman set_font
60.1 734.8 moveto 192 (Infiniband-[FE80:0000:0000:0001]) alignedtext
grestore
% Infiniband-[FE80:0000:0000:0001]--jack1
gsave
1 setlinewidth
0 0 0 edgecolor
newpath 296.67 734.84 moveto
498.58 729.57 846.64 720.5 846.64 720.5 curveto
stroke
grestore
% Infiniband-[FE80:0000:0000:0001]--jack0
gsave
1 setlinewidth
0 0 0 edgecolor
newpath 189.18 720.41 moveto
364.42 624.57 1176.41 180.5 1176.41 180.5 curveto
stroke
grestore
% Infiniband-[FE80:0000:0000:0002]
gsave
0.56078 0.3098 1 nodecolor
newpath 312.25 18.5 moveto
234.18 36.5 lineto
78.03 36.5 lineto
-.05 18.5 lineto
78.03 .5 lineto
234.18 .5 lineto
closepath fill
1 setlinewidth
filled
0.56078 0.3098 1 nodecolor
newpath 312.25 18.5 moveto
234.18 36.5 lineto
78.03 36.5 lineto
-.05 18.5 lineto
78.03 .5 lineto
234.18 .5 lineto
closepath stroke
0 0 0 nodecolor
14 /Times-Roman set_font
60.1 14.8 moveto 192 (Infiniband-[FE80:0000:0000:0002]) alignedtext
grestore
% Infiniband-[FE80:0000:0000:0002]--joe0
gsave
1 setlinewidth
0 0 0 edgecolor
newpath 194.87 36.61 moveto
285.36 78.89 502.87 180.5 502.87 180.5 curveto
stroke
grestore
% Infiniband-[FE80:0000:0000:0002]--joe1
gsave
1 setlinewidth
0 0 0 edgecolor
newpath 295.76 14.68 moveto
489.07 9.4 814.64 .5 814.64 .5 curveto
stroke
grestore
endpage
showpage
grestore
%%PageTrailer
%%EndPage: 1
%%Trailer
end
restore
%%EOF
