%!PS-Adobe-2.0 EPSF-2.0
%%Title: firewall2.fig
%%Creator: fig2dev Version 3.2 Patchlevel 5-alpha7
%%CreationDate: Mon Sep  4 14:53:10 2006
%%For: cfrezier@ma (Christrophe Frezier,,,)
%%BoundingBox: 0 0 481 251
%Magnification: 1.0000
%%EndComments
/$F2psDict 200 dict def
$F2psDict begin
$F2psDict /mtrx matrix put
/col-1 {0 setgray} bind def
/col0 {0.000 0.000 0.000 srgb} bind def
/col1 {0.000 0.000 1.000 srgb} bind def
/col2 {0.000 1.000 0.000 srgb} bind def
/col3 {0.000 1.000 1.000 srgb} bind def
/col4 {1.000 0.000 0.000 srgb} bind def
/col5 {1.000 0.000 1.000 srgb} bind def
/col6 {1.000 1.000 0.000 srgb} bind def
/col7 {1.000 1.000 1.000 srgb} bind def
/col8 {0.000 0.000 0.560 srgb} bind def
/col9 {0.000 0.000 0.690 srgb} bind def
/col10 {0.000 0.000 0.820 srgb} bind def
/col11 {0.530 0.810 1.000 srgb} bind def
/col12 {0.000 0.560 0.000 srgb} bind def
/col13 {0.000 0.690 0.000 srgb} bind def
/col14 {0.000 0.820 0.000 srgb} bind def
/col15 {0.000 0.560 0.560 srgb} bind def
/col16 {0.000 0.690 0.690 srgb} bind def
/col17 {0.000 0.820 0.820 srgb} bind def
/col18 {0.560 0.000 0.000 srgb} bind def
/col19 {0.690 0.000 0.000 srgb} bind def
/col20 {0.820 0.000 0.000 srgb} bind def
/col21 {0.560 0.000 0.560 srgb} bind def
/col22 {0.690 0.000 0.690 srgb} bind def
/col23 {0.820 0.000 0.820 srgb} bind def
/col24 {0.500 0.190 0.000 srgb} bind def
/col25 {0.630 0.250 0.000 srgb} bind def
/col26 {0.750 0.380 0.000 srgb} bind def
/col27 {1.000 0.500 0.500 srgb} bind def
/col28 {1.000 0.630 0.630 srgb} bind def
/col29 {1.000 0.750 0.750 srgb} bind def
/col30 {1.000 0.880 0.880 srgb} bind def
/col31 {1.000 0.840 0.000 srgb} bind def

end
save
newpath 0 251 moveto 0 0 lineto 481 0 lineto 481 251 lineto closepath clip newpath
-61.6 281.4 translate
1 -1 scale

/cp {closepath} bind def
/ef {eofill} bind def
/gr {grestore} bind def
/gs {gsave} bind def
/sa {save} bind def
/rs {restore} bind def
/l {lineto} bind def
/m {moveto} bind def
/rm {rmoveto} bind def
/n {newpath} bind def
/s {stroke} bind def
/sh {show} bind def
/slc {setlinecap} bind def
/slj {setlinejoin} bind def
/slw {setlinewidth} bind def
/srgb {setrgbcolor} bind def
/rot {rotate} bind def
/sc {scale} bind def
/sd {setdash} bind def
/ff {findfont} bind def
/sf {setfont} bind def
/scf {scalefont} bind def
/sw {stringwidth} bind def
/tr {translate} bind def
/tnt {dup dup currentrgbcolor
  4 -2 roll dup 1 exch sub 3 -1 roll mul add
  4 -2 roll dup 1 exch sub 3 -1 roll mul add
  4 -2 roll dup 1 exch sub 3 -1 roll mul add srgb}
  bind def
/shd {dup dup currentrgbcolor 4 -2 roll mul 4 -2 roll mul
  4 -2 roll mul srgb} bind def
/$F2psBegin {$F2psDict begin /$F2psEnteredState save def} def
/$F2psEnd {$F2psEnteredState restore end} def

$F2psBegin
10 setmiterlimit
0 slj 0 slc
 0.06299 0.06299 sc
%
% Fig objects follow
%
% 
% here starts figure with depth 50
% Polyline
0 slj
0 slc
7.500 slw
n 7020 3555 m 8235 3555 l 8235 4320 l 7020 4320 l
 cp gs col0 s gr 
% Polyline
n 7215 3645 m 7110 3645 7110 4125 105 arcto 4 {pop} repeat
  7110 4230 7680 4230 105 arcto 4 {pop} repeat
  7785 4230 7785 3750 105 arcto 4 {pop} repeat
  7785 3645 7215 3645 105 arcto 4 {pop} repeat
 cp gs col2 s gr 
/Times-Roman ff 190.50 scf sf
7155 4005 m
gs 1 -1 sc (node02) col2 sh gr
% Polyline
n 7380 2655 m 8595 2655 l 8595 3420 l 7380 3420 l
 cp gs col0 s gr 
% Polyline
n 7575 2745 m 7470 2745 7470 3225 105 arcto 4 {pop} repeat
  7470 3330 8040 3330 105 arcto 4 {pop} repeat
  8145 3330 8145 2850 105 arcto 4 {pop} repeat
  8145 2745 7575 2745 105 arcto 4 {pop} repeat
 cp gs col2 s gr 
/Times-Roman ff 190.50 scf sf
7515 3105 m
gs 1 -1 sc (node01) col2 sh gr
% Polyline
n 5670 3555 m 6885 3555 l 6885 4320 l 5670 4320 l
 cp gs col0 s gr 
% Polyline
n 5865 3645 m 5760 3645 5760 4125 105 arcto 4 {pop} repeat
  5760 4230 6330 4230 105 arcto 4 {pop} repeat
  6435 4230 6435 3750 105 arcto 4 {pop} repeat
  6435 3645 5865 3645 105 arcto 4 {pop} repeat
 cp gs col2 s gr 
/Times-Roman ff 190.50 scf sf
5805 4005 m
gs 1 -1 sc (node03) col2 sh gr
% Polyline
n 6000 2385 m 5895 2385 5895 2865 105 arcto 4 {pop} repeat
  5895 2970 6465 2970 105 arcto 4 {pop} repeat
  6570 2970 6570 2490 105 arcto 4 {pop} repeat
  6570 2385 6000 2385 105 arcto 4 {pop} repeat
 cp gs col2 s gr 
% Polyline
n 5490 2025 m 5850 2025 l 5850 3015 l 5490 3015 l
 cp gs col0 s gr 
% Polyline
n 5400 2295 m 6615 2295 l 6615 3060 l 5400 3060 l
 cp gs col0 s gr 
/Times-Roman ff 190.50 scf sf
5985 2745 m
gs 1 -1 sc (node0) col2 sh gr
/Times-Roman ff 190.50 scf sf
5760 2970 m
gs 1 -1 sc  90.0 rot (SSHD) col0 sh gr
% Arc
n 5374.6 -1923.7 3408.8 124.0698 52.0690 arcn
gs col4 s gr

% Arc
n 2976.5 3240.0 1607.5 30.2580 -101.5376 arcn
gs col1 s gr

% Arc
n 7650.9 4029.9 2855.6 173.2605 -72.5962 arc
gs col1 s gr

% Arc
gs  clippath
5635 1348 m 5615 1151 l 5541 1158 l 5561 1355 l 5561 1355 l 5582 1188 l 5635 1348 l cp
eoclip
n 7009.0 1118.6 1429.9 117.6688 177.9398 arc
gs col0 s gr
 gr

% arrowhead
n 5635 1348 m 5582 1188 l 5561 1355 l  col0 s
% Arc
gs  clippath
5894 2351 m 6030 2418 l 6056 2364 l 5920 2297 l 5920 2297 l 6015 2378 l 5894 2351 l cp
eoclip
n 5264.3 3782.1 1593.2 -137.2177 -61.2745 arc
gs col0 s gr
 gr

% arrowhead
n 5894 2351 m 6015 2378 l 5920 2297 l  col0 s
% Polyline
n 5370 585 m 5265 585 5265 1065 105 arcto 4 {pop} repeat
  5265 1170 5835 1170 105 arcto 4 {pop} repeat
  5940 1170 5940 690 105 arcto 4 {pop} repeat
  5940 585 5370 585 105 arcto 4 {pop} repeat
 cp gs col0 s gr 
% Polyline
n 4860 540 m 5220 540 l 5220 1530 l 4860 1530 l
 cp gs col0 s gr 
% Polyline
n 4815 495 m 6030 495 l 6030 1260 l 4815 1260 l
 cp gs col0 s gr 
% Polyline
n 2970 2295 m 4185 2295 l 4185 3060 l 2970 3060 l
 cp gs col0 s gr 
% Polyline
n 990 2025 m 2205 2025 l 2205 2790 l 990 2790 l
 cp gs col0 s gr 
% Polyline
n 990 2970 m 2205 2970 l 2205 3735 l 990 3735 l
 cp gs col0 s gr 
% Polyline
n 2475 3690 m 3690 3690 l 3690 4455 l 2475 4455 l
 cp gs col0 s gr 
% Polyline
n 3030 3780 m 2925 3780 2925 4260 105 arcto 4 {pop} repeat
  2925 4365 3495 4365 105 arcto 4 {pop} repeat
  3600 4365 3600 3885 105 arcto 4 {pop} repeat
  3600 3780 3030 3780 105 arcto 4 {pop} repeat
 cp gs col2 s gr 
% Polyline
n 1545 3060 m 1440 3060 1440 3540 105 arcto 4 {pop} repeat
  1440 3645 2010 3645 105 arcto 4 {pop} repeat
  2115 3645 2115 3165 105 arcto 4 {pop} repeat
  2115 3060 1545 3060 105 arcto 4 {pop} repeat
 cp gs col2 s gr 
% Polyline
n 1545 2115 m 1440 2115 1440 2595 105 arcto 4 {pop} repeat
  1440 2700 2010 2700 105 arcto 4 {pop} repeat
  2115 2700 2115 2220 105 arcto 4 {pop} repeat
  2115 2115 1545 2115 105 arcto 4 {pop} repeat
 cp gs col2 s gr 
% Polyline
n 2115 2430 m
 3420 2700 l gs col0 s gr 
% Polyline
n 2115 3330 m
 3420 2790 l gs col0 s gr 
% Polyline
n 3600 2970 m
 3240 3780 l gs col0 s gr 
% Polyline
gs  clippath
5375 1600 m 5230 1491 l 5185 1550 l 5329 1660 l 5329 1660 l 5233 1540 l 5375 1600 l cp
eoclip
n 6345 2385 m
 5220 1530 l gs col2 s gr gr

% arrowhead
n 5375 1600 m 5233 1540 l 5329 1660 l  col2 s
% Polyline
n 7367 3122 m
 6615 2655 l gs col0 s gr 
% Polyline
n 6210 3555 m 6300 3060 l 6525 3060 l
 7200 3555 l gs col0 s gr 
% Polyline
gs  clippath
5345 2251 m 5516 2190 l 5491 2119 l 5320 2180 l 5320 2180 l 5474 2166 l 5345 2251 l cp
eoclip
n 4095 2655 m
 5490 2160 l gs col2 s gr gr

% arrowhead
n 5345 2251 m 5474 2166 l 5320 2180 l  col2 s
% Polyline
n 3525 2385 m 3420 2385 3420 2865 105 arcto 4 {pop} repeat
  3420 2970 3990 2970 105 arcto 4 {pop} repeat
  4095 2970 4095 2490 105 arcto 4 {pop} repeat
  4095 2385 3525 2385 105 arcto 4 {pop} repeat
 cp gs col2 s gr 
/Times-Roman ff 190.50 scf sf
5130 1170 m
gs 1 -1 sc  90.0 rot (SSHD) col0 sh gr
/Times-Roman ff 190.50 scf sf
5310 1080 m
gs 1 -1 sc (control) col0 sh gr
/Times-Roman ff 190.50 scf sf
5310 855 m
gs 1 -1 sc (padico) col0 sh gr
/Times-Roman ff 190.50 scf sf
1485 2475 m
gs 1 -1 sc (node11) col2 sh gr
/Times-Roman ff 190.50 scf sf
1485 3420 m
gs 1 -1 sc (node12) col2 sh gr
/Times-Roman ff 190.50 scf sf
2970 4140 m
gs 1 -1 sc (node13) col2 sh gr
/Times-Roman ff 190.50 scf sf
3510 2745 m
gs 1 -1 sc (node1) col2 sh gr
/Times-Roman ff 190.50 scf sf
2655 810 m
gs 1 -1 sc (local machine firewall) col4 sh gr
/Times-Roman ff 190.50 scf sf
6120 810 m
gs 1 -1 sc (GUI) col0 sh gr
/Times-Roman ff 190.50 scf sf
7065 1485 m
gs 1 -1 sc (site 0 firewall) col1 sh gr
/Times-Roman ff 190.50 scf sf
1845 1890 m
gs 1 -1 sc (site 1 firewall) col1 sh gr
% here ends figure;
$F2psEnd
rs
showpage
%%Trailer
%EOF
