%!PS-Adobe-2.0 EPSF-2.0
%%Title: firewall.fig
%%Creator: fig2dev Version 3.2 Patchlevel 5-alpha7
%%CreationDate: Mon Sep  4 14:52:54 2006
%%For: cfrezier@ma (Christrophe Frezier,,,)
%%BoundingBox: 0 0 325 301
%Magnification: 1.0000
%%EndComments
/$F2psDict 200 dict def
$F2psDict begin
$F2psDict /mtrx matrix put
/col-1 {0 setgray} bind def
/col0 {0.000 0.000 0.000 srgb} bind def
/col1 {0.000 0.000 1.000 srgb} bind def
/col2 {0.000 1.000 0.000 srgb} bind def
/col3 {0.000 1.000 1.000 srgb} bind def
/col4 {1.000 0.000 0.000 srgb} bind def
/col5 {1.000 0.000 1.000 srgb} bind def
/col6 {1.000 1.000 0.000 srgb} bind def
/col7 {1.000 1.000 1.000 srgb} bind def
/col8 {0.000 0.000 0.560 srgb} bind def
/col9 {0.000 0.000 0.690 srgb} bind def
/col10 {0.000 0.000 0.820 srgb} bind def
/col11 {0.530 0.810 1.000 srgb} bind def
/col12 {0.000 0.560 0.000 srgb} bind def
/col13 {0.000 0.690 0.000 srgb} bind def
/col14 {0.000 0.820 0.000 srgb} bind def
/col15 {0.000 0.560 0.560 srgb} bind def
/col16 {0.000 0.690 0.690 srgb} bind def
/col17 {0.000 0.820 0.820 srgb} bind def
/col18 {0.560 0.000 0.000 srgb} bind def
/col19 {0.690 0.000 0.000 srgb} bind def
/col20 {0.820 0.000 0.000 srgb} bind def
/col21 {0.560 0.000 0.560 srgb} bind def
/col22 {0.690 0.000 0.690 srgb} bind def
/col23 {0.820 0.000 0.820 srgb} bind def
/col24 {0.500 0.190 0.000 srgb} bind def
/col25 {0.630 0.250 0.000 srgb} bind def
/col26 {0.750 0.380 0.000 srgb} bind def
/col27 {1.000 0.500 0.500 srgb} bind def
/col28 {1.000 0.630 0.630 srgb} bind def
/col29 {1.000 0.750 0.750 srgb} bind def
/col30 {1.000 0.880 0.880 srgb} bind def
/col31 {1.000 0.840 0.000 srgb} bind def

end
save
newpath 0 301 moveto 0 0 lineto 325 0 lineto 325 301 lineto closepath clip newpath
-166.3 330.6 translate
1 -1 scale

/cp {closepath} bind def
/ef {eofill} bind def
/gr {grestore} bind def
/gs {gsave} bind def
/sa {save} bind def
/rs {restore} bind def
/l {lineto} bind def
/m {moveto} bind def
/rm {rmoveto} bind def
/n {newpath} bind def
/s {stroke} bind def
/sh {show} bind def
/slc {setlinecap} bind def
/slj {setlinejoin} bind def
/slw {setlinewidth} bind def
/srgb {setrgbcolor} bind def
/rot {rotate} bind def
/sc {scale} bind def
/sd {setdash} bind def
/ff {findfont} bind def
/sf {setfont} bind def
/scf {scalefont} bind def
/sw {stringwidth} bind def
/tr {translate} bind def
/tnt {dup dup currentrgbcolor
  4 -2 roll dup 1 exch sub 3 -1 roll mul add
  4 -2 roll dup 1 exch sub 3 -1 roll mul add
  4 -2 roll dup 1 exch sub 3 -1 roll mul add srgb}
  bind def
/shd {dup dup currentrgbcolor 4 -2 roll mul 4 -2 roll mul
  4 -2 roll mul srgb} bind def
/$F2psBegin {$F2psDict begin /$F2psEnteredState save def} def
/$F2psEnd {$F2psEnteredState restore end} def

$F2psBegin
10 setmiterlimit
0 slj 0 slc
 0.06299 0.06299 sc
%
% Fig objects follow
%
% 
% here starts figure with depth 50
% Arc
7.500 slw
0 slc
n 5374.6 -1923.7 3408.8 124.0698 52.0690 arcn
gs col4 s gr

% Arc
n 5590.5 8318.4 5989.9 -112.6375 -68.5084 arc
gs col1 s gr

% Arc
gs  clippath
5428 1459 m 5571 1321 l 5519 1267 l 5376 1404 l 5376 1404 l 5522 1318 l 5428 1459 l cp
eoclip
n 6056.0 1982.5 854.7 116.8507 -127.5624 arc
gs col0 s gr
 gr

% arrowhead
0 slj
n 5428 1459 m 5522 1318 l 5376 1404 l  col0 s
% Polyline
n 4815 4230 m 6030 4230 l 6030 4995 l 4815 4995 l
 cp gs col0 s gr 
% Polyline
n 3195 4230 m 4410 4230 l 4410 4995 l 3195 4995 l
 cp gs col0 s gr 
% Polyline
n 6390 4230 m 7605 4230 l 7605 4995 l 6390 4995 l
 cp gs col0 s gr 
% Polyline
n 5370 4320 m 5265 4320 5265 4800 105 arcto 4 {pop} repeat
  5265 4905 5835 4905 105 arcto 4 {pop} repeat
  5940 4905 5940 4425 105 arcto 4 {pop} repeat
  5940 4320 5370 4320 105 arcto 4 {pop} repeat
 cp gs col2 s gr 
% Polyline
n 6945 4320 m 6840 4320 6840 4800 105 arcto 4 {pop} repeat
  6840 4905 7410 4905 105 arcto 4 {pop} repeat
  7515 4905 7515 4425 105 arcto 4 {pop} repeat
  7515 4320 6945 4320 105 arcto 4 {pop} repeat
 cp gs col2 s gr 
% Polyline
n 3750 4320 m 3645 4320 3645 4800 105 arcto 4 {pop} repeat
  3645 4905 4215 4905 105 arcto 4 {pop} repeat
  4320 4905 4320 4425 105 arcto 4 {pop} repeat
  4320 4320 3750 4320 105 arcto 4 {pop} repeat
 cp gs col2 s gr 
% Polyline
n 4005 4230 m
 5220 3375 l gs col0 s gr 
% Polyline
n 5445 4230 m
 5445 3375 l gs col0 s gr 
% Polyline
n 5715 3375 m
 6975 4230 l gs col0 s gr 
% Polyline
n 5370 585 m 5265 585 5265 1065 105 arcto 4 {pop} repeat
  5265 1170 5835 1170 105 arcto 4 {pop} repeat
  5940 1170 5940 690 105 arcto 4 {pop} repeat
  5940 585 5370 585 105 arcto 4 {pop} repeat
 cp gs col0 s gr 
% Polyline
n 4860 540 m 5220 540 l 5220 1530 l 4860 1530 l
 cp gs col0 s gr 
% Polyline
gs  clippath
5076 1707 m 5017 1535 l 4946 1560 l 5005 1732 l 5005 1732 l 4992 1578 l 5076 1707 l cp
eoclip
n 5392 2732 m
 4987 1562 l gs col2 s gr gr

% arrowhead
n 5076 1707 m 4992 1578 l 5005 1732 l  col2 s
% Polyline
n 4815 495 m 6030 495 l 6030 1260 l 4815 1260 l
 cp gs col0 s gr 
% Polyline
n 4860 2610 m 6075 2610 l 6075 3375 l 4860 3375 l
 cp gs col0 s gr 
% Polyline
n 5370 2745 m 5265 2745 5265 3225 105 arcto 4 {pop} repeat
  5265 3330 5835 3330 105 arcto 4 {pop} repeat
  5940 3330 5940 2850 105 arcto 4 {pop} repeat
  5940 2745 5370 2745 105 arcto 4 {pop} repeat
 cp gs col2 s gr 
/Times-Roman ff 190.50 scf sf
5130 1170 m
gs 1 -1 sc  90.0 rot (SSHD) col0 sh gr
/Times-Roman ff 190.50 scf sf
5310 1080 m
gs 1 -1 sc (control) col0 sh gr
/Times-Roman ff 190.50 scf sf
3735 4680 m
gs 1 -1 sc (node1) col2 sh gr
/Times-Roman ff 190.50 scf sf
5355 4680 m
gs 1 -1 sc (node2) col2 sh gr
/Times-Roman ff 190.50 scf sf
5355 3060 m
gs 1 -1 sc (node0) col2 sh gr
/Times-Roman ff 190.50 scf sf
6930 4680 m
gs 1 -1 sc (node3) col2 sh gr
/Times-Roman ff 190.50 scf sf
5310 855 m
gs 1 -1 sc (padico) col0 sh gr
/Times-Roman ff 190.50 scf sf
2835 2970 m
gs 1 -1 sc (site firewall) col1 sh gr
/Times-Roman ff 190.50 scf sf
2655 810 m
gs 1 -1 sc (local machine firewall) col4 sh gr
/Times-Roman ff 190.50 scf sf
6120 810 m
gs 1 -1 sc (GUI) col0 sh gr
/Times-Roman ff 190.50 scf sf
6075 3150 m
gs 1 -1 sc (compute and) col0 sh gr
/Times-Roman ff 190.50 scf sf
6075 3405 m
gs 1 -1 sc (routing node) col0 sh gr
/Times-Roman ff 190.50 scf sf
4185 5175 m
gs 1 -1 sc (compute nodes) col0 sh gr
% here ends figure;
$F2psEnd
rs
showpage
%%Trailer
%EOF
