#FIG 3.2  Produced by xfig version 3.2.5-alpha5
Landscape
Center
Metric
A4      
100.00
Single
-2
1200 2
5 1 0 1 4 7 50 -1 -1 0.000 0 1 0 0 5374.596 -1923.662 3465 900 5400 1485 7470 765
5 1 0 1 1 7 50 -1 -1 0.000 0 1 0 0 2976.513 3240.000 4365 4050 4365 2430 2655 1665
5 1 0 1 1 7 50 -1 -1 0.000 0 0 0 0 7650.876 4029.880 4815 4365 5760 1890 8505 1305
5 1 0 1 0 7 50 -1 -1 0.000 0 0 1 0 7008.997 1118.595 6345 2385 5805 1890 5580 1170
	0 0 1.00 75.00 165.00
5 1 0 1 0 7 50 -1 -1 0.000 0 0 1 0 5264.297 3782.109 4095 2700 5490 2205 6030 2385
	0 0 1.00 60.00 120.00
6 7020 3555 8235 4320
2 2 0 1 0 7 50 -1 -1 0.000 0 0 -1 0 0 5
	 7020 3555 8235 3555 8235 4320 7020 4320 7020 3555
2 4 0 1 2 7 50 -1 -1 0.000 0 0 7 0 0 5
	 7785 4230 7110 4230 7110 3645 7785 3645 7785 4230
4 0 2 50 -1 0 12 0.0000 4 150 630 7155 4005 node02\001
-6
6 7380 2655 8595 3420
2 2 0 1 0 7 50 -1 -1 0.000 0 0 -1 0 0 5
	 7380 2655 8595 2655 8595 3420 7380 3420 7380 2655
2 4 0 1 2 7 50 -1 -1 0.000 0 0 7 0 0 5
	 8145 3330 7470 3330 7470 2745 8145 2745 8145 3330
4 0 2 50 -1 0 12 0.0000 4 150 630 7515 3105 node01\001
-6
6 5670 3555 6885 4320
2 2 0 1 0 7 50 -1 -1 0.000 0 0 -1 0 0 5
	 5670 3555 6885 3555 6885 4320 5670 4320 5670 3555
2 4 0 1 2 7 50 -1 -1 0.000 0 0 7 0 0 5
	 6435 4230 5760 4230 5760 3645 6435 3645 6435 4230
4 0 2 50 -1 0 12 0.0000 4 150 630 5805 4005 node03\001
-6
6 5400 2025 6615 3060
2 4 0 1 2 7 50 -1 -1 0.000 0 0 7 0 0 5
	 6570 2970 5895 2970 5895 2385 6570 2385 6570 2970
2 2 0 1 0 7 50 -1 -1 0.000 0 0 -1 0 0 5
	 5490 2025 5850 2025 5850 3015 5490 3015 5490 2025
2 2 0 1 0 7 50 -1 -1 0.000 0 0 -1 0 0 5
	 5400 2295 6615 2295 6615 3060 5400 3060 5400 2295
4 0 2 50 -1 0 12 0.0000 4 150 525 5985 2745 node0\001
4 0 0 50 -1 0 12 1.5708 4 150 540 5760 2970 SSHD\001
-6
2 4 0 1 0 7 50 -1 -1 0.000 0 0 7 0 0 5
	 5940 1170 5265 1170 5265 585 5940 585 5940 1170
2 2 0 1 0 7 50 -1 -1 0.000 0 0 -1 0 0 5
	 4860 540 5220 540 5220 1530 4860 1530 4860 540
2 2 0 1 0 7 50 -1 -1 0.000 0 0 -1 0 0 5
	 4815 495 6030 495 6030 1260 4815 1260 4815 495
2 2 0 1 0 7 50 -1 -1 0.000 0 0 -1 0 0 5
	 2970 2295 4185 2295 4185 3060 2970 3060 2970 2295
2 2 0 1 0 7 50 -1 -1 0.000 0 0 -1 0 0 5
	 990 2025 2205 2025 2205 2790 990 2790 990 2025
2 2 0 1 0 7 50 -1 -1 0.000 0 0 -1 0 0 5
	 990 2970 2205 2970 2205 3735 990 3735 990 2970
2 2 0 1 0 7 50 -1 -1 0.000 0 0 -1 0 0 5
	 2475 3690 3690 3690 3690 4455 2475 4455 2475 3690
2 4 0 1 2 7 50 -1 -1 0.000 0 0 7 0 0 5
	 3600 4365 2925 4365 2925 3780 3600 3780 3600 4365
2 4 0 1 2 7 50 -1 -1 0.000 0 0 7 0 0 5
	 2115 3645 1440 3645 1440 3060 2115 3060 2115 3645
2 4 0 1 2 7 50 -1 -1 0.000 0 0 7 0 0 5
	 2115 2700 1440 2700 1440 2115 2115 2115 2115 2700
2 1 0 1 0 7 50 -1 -1 0.000 0 0 -1 0 0 2
	 2115 2430 3420 2700
2 1 0 1 0 7 50 -1 -1 0.000 0 0 -1 0 0 2
	 2115 3330 3420 2790
2 1 0 1 0 7 50 -1 -1 0.000 0 0 -1 0 0 2
	 3600 2970 3240 3780
2 1 0 1 2 7 50 -1 -1 0.000 0 0 -1 1 0 2
	0 0 1.00 75.00 150.00
	 6345 2385 5220 1530
2 1 0 1 0 7 50 -1 -1 0.000 0 0 -1 0 0 2
	 7367 3122 6615 2655
2 1 0 1 0 7 50 -1 -1 0.000 0 0 -1 0 0 4
	 6210 3555 6300 3060 6525 3060 7200 3555
2 1 0 1 2 7 50 -1 -1 0.000 0 0 -1 1 0 2
	0 0 1.00 75.00 150.00
	 4095 2655 5490 2160
2 4 0 1 2 7 50 -1 -1 0.000 0 0 7 0 0 5
	 4095 2970 3420 2970 3420 2385 4095 2385 4095 2970
4 0 0 50 -1 0 12 1.5708 4 150 540 5130 1170 SSHD\001
4 0 0 50 -1 0 12 0.0000 4 150 600 5310 1080 control\001
4 0 0 50 -1 0 12 0.0000 4 195 570 5310 855 padico\001
4 0 2 50 -1 0 12 0.0000 4 150 630 1485 2475 node11\001
4 0 2 50 -1 0 12 0.0000 4 150 630 1485 3420 node12\001
4 0 2 50 -1 0 12 0.0000 4 150 630 2970 4140 node13\001
4 0 2 50 -1 0 12 0.0000 4 150 525 3510 2745 node1\001
4 0 4 50 -1 0 12 0.0000 4 150 1875 2655 810 local machine firewall\001
4 0 0 50 -1 0 12 0.0000 4 150 390 6120 810 GUI\001
4 0 1 50 -1 0 12 0.0000 4 150 1140 7065 1485 site 0 firewall\001
4 0 1 50 -1 0 12 0.0000 4 150 1140 1845 1890 site 1 firewall\001
